src/dump.vcd
$date
	Wed Oct 24 20:42:19 2018
$end
$version
	Icarus Verilog
$end
$timescale
	1s
$end
$scope module test $end
$var wire 1 ! tm1637_vcc $end
$var wire 1 " tm1637_dio $end
$var wire 1 # tm1637_clk $end
$var wire 4 $ led [3:0] $end
$var wire 7 % debug_step_id [6:0] $end
$var reg 1 & clk $end
$var reg 1 ' rst_n $end
$scope module demo1 $end
$var wire 1 & clk_50M $end
$var wire 7 ( debug_step_id [6:0] $end
$var wire 1 ' rst_n $end
$var wire 4 ) switches [3:0] $end
$var wire 1 * tx_error $end
$var wire 1 + tx_completed $end
$var wire 1 , tm1637_dio_drain $end
$var wire 1 " tm1637_dio $end
$var wire 1 - tm1637_clk_drain $end
$var wire 1 # tm1637_clk $end
$var wire 4 . sw [3:0] $end
$var wire 1 / step_wr_spi $end
$var wire 1 0 step_wait_spi $end
$var wire 8 1 step_tx_data [7:0] $end
$var wire 24 2 step_time [23:0] $end
$var wire 1 3 step_should_repeat $end
$var wire 1 4 step_reset_spi $end
$var wire 4 5 step_repeat [3:0] $end
$var wire 1 6 step_rd_spi $end
$var wire 3 7 step_next [2:0] $end
$var wire 1 8 step_backward $end
$var wire 1 9 ss $end
$var wire 4 : spi_debug_bit_num [3:0] $end
$var wire 4 ; spi_debug [3:0] $end
$var wire 8 < rx_data [7:0] $end
$var wire 1 = rx_completed $end
$var wire 4 > normalised_led [3:0] $end
$var wire 4 ? led [3:0] $end
$var wire 48 @ encoded_step [47:0] $end
$var wire 1 A debug_waiting_for_tx_data $end
$var wire 1 B debug_waiting_for_prescaler $end
$var wire 8 C debug_tx_buffer [7:0] $end
$var wire 8 D debug_rx_buffer [7:0] $end
$var reg 1 E clk_spi $end
$var reg 25 F cnt [24:0] $end
$var reg 25 G cnt_spi [24:0] $end
$var reg 1 H debug_waiting_for_spi $end
$var reg 1 I debug_waiting_for_step_time $end
$var reg 28 J elapsed_time [27:0] $end
$var reg 1 K internal_state_machine $end
$var reg 1 L rd_spi $end
$var reg 15 M repeat_count [14:0] $end
$var reg 1 N reset_spi $end
$var reg 28 O saved_elapsed_time [27:0] $end
$var reg 7 P step_id [6:0] $end
$var reg 8 Q test_display_off [7:0] $end
$var reg 8 R test_display_on [7:0] $end
$var reg 1 ! tm1637_vcc $end
$var reg 8 S tx_data [7:0] $end
$var reg 1 T wait_spi $end
$var reg 1 U wr_spi $end
$scope module oled_rom_init $end
$var wire 7 V addr [6:0] $end
$var wire 48 W dout [47:0] $end
$upscope $end
$scope module spi0 $end
$var wire 1 X _diomode $end
$var wire 1 Y _empty_tx_bit $end
$var wire 1 Z _lsbfirst $end
$var wire 2 [ _mode [1:0] $end
$var wire 1 \ _mode_clk_idle_high $end
$var wire 1 ] _mode_clk_idle_low $end
$var wire 1 ^ _msbfirst $end
$var wire 3 _ _prescaler [2:0] $end
$var wire 8 ` _prescdemux [7:0] $end
$var wire 1 E clk $end
$var wire 8 a debug_rx_buffer [7:0] $end
$var wire 8 b debug_tx_buffer [7:0] $end
$var wire 1 c diomode $end
$var wire 1 d lsbfirst $end
$var wire 1 e miso $end
$var wire 2 f mode [1:0] $end
$var wire 1 g mode_clk_high_to_low $end
$var wire 1 h mode_clk_low_to_high $end
$var wire 1 " mosi $end
$var wire 1 i msbfirst $end
$var wire 3 j prescaler [2:0] $end
$var wire 1 L rd $end
$var wire 1 N rst $end
$var wire 1 k rst_tx_error $end
$var wire 1 = rx_completed $end
$var wire 1 + tx_completed $end
$var wire 8 l tx_data [7:0] $end
$var wire 1 U wr $end
$var wire 1 # sck $end
$var wire 8 m rx_data [7:0] $end
$var wire 1 n mode_clk_phase $end
$var wire 1 o _sck_transition $end
$var wire 4 p _sck_bit_num [3:0] $end
$var wire 1 q _num_close_bits $end
$var wire 4 r _num_bits [3:0] $end
$var wire 1 s _mode_clk_polarity $end
$var wire 1 t _mode_clk_phase $end
$var reg 1 u _mosi $end
$var reg 8 v _prescaler_cnt [7:0] $end
$var reg 8 w _rx_buffer [7:0] $end
$var reg 1 x _rx_buffer_occupied $end
$var reg 1 y _rx_buffer_received $end
$var reg 5 z _sck [4:0] $end
$var reg 8 { _shift_reg_rx [7:0] $end
$var reg 8 | _shift_reg_tx [7:0] $end
$var reg 1 } _state $end
$var reg 8 ~ _tx_buffer [7:0] $end
$var reg 1 !" _tx_buffer_occupied $end
$var reg 1 "" _tx_buffer_sent $end
$var reg 4 #" debug [3:0] $end
$var reg 4 $" debug_bit_num [3:0] $end
$var reg 1 B debug_waiting_for_prescaler $end
$var reg 1 A debug_waiting_for_tx_data $end
$var reg 1 9 ss $end
$var reg 1 * tx_error $end
$upscope $end
$upscope $end
$upscope $end
$enddefinitions $end
#0
$dumpvars
bx $"
bx #"
x""
x!"
bx ~
x}
bx |
bx {
bx z
xy
xx
bx w
bx v
xu
1t
1s
b1001 r
xq
bx p
xo
1n
bx m
bx l
0k
b0 j
0i
1h
0g
b11 f
1e
1d
1c
bx b
bx a
b1 `
b0 _
0^
0]
1\
b11 [
1Z
0Y
1X
bx W
bx V
xU
xT
bx S
bx R
bx Q
bx P
bx O
xN
bx M
xL
xK
bx J
xI
xH
bx G
bx F
xE
bx D
bx C
xB
xA
bx @
bx ?
bx >
x=
bx <
bx ;
bx :
x9
x8
bx 7
x6
bx 5
x4
x3
bx 2
bx 1
x0
x/
bz .
x-
x,
x+
x*
bz )
bx (
1'
0&
bx %
bx $
x#
x"
x!
$end
#1
bz <
bz m
14
00
06
0/
b0 5
03
b10001111 1
b1010 2
b1 7
08
0H
0I
b10000000 Q
b10001111 R
b0 S
b0 l
b0 M
b0 O
b0 J
0K
0N
0U
0L
0T
b110000000000000000000000010101000111100000000 @
b110000000000000000000000010101000111100000000 W
b0 %
b0 (
b0 P
b0 V
b0 G
1!
b0 F
0E
b1111 $
b1111 ?
0'
#3
bx $
bx ?
1'
#10
b1 F
1&
#20
0&
#30
b10 F
1&
#40
0&
#50
z-
1#
1q
z,
b0 p
0o
0=
1+
0y
0B
0A
b0 :
b0 $"
b1 ;
b1 #"
b0 v
19
1"
1u
b0 z
b0 D
b0 a
b0 w
b0 {
b0 |
0x
0""
0}
0*
0!"
b0 C
b0 b
b0 ~
b1 J
1I
b10001111 S
b10001111 l
1N
b1 G
b0 F
1E
1&
#60
0&
#70
b1 F
1&
#80
0&
#90
b10 F
1&
#100
0&
#110
b0 F
0E
1&
#120
0&
#130
b1 F
1&
#140
0&
#150
b10 F
1&
#160
0&
#170
b10 J
b10 G
b0 F
1E
1&
#180
0&
#190
b1 F
1&
#200
0&
#210
b10 F
1&
#220
0&
#230
b0 F
0E
1&
#240
0&
#250
b1 F
1&
#260
0&
#270
b10 F
1&
#280
0&
#290
b11 J
b11 G
b0 F
1E
1&
#300
0&
#310
b1 F
1&
#320
0&
#330
b10 F
1&
#340
0&
#350
b0 F
0E
1&
#360
0&
#370
b1 F
1&
#380
0&
#390
b10 F
1&
#400
0&
#410
b100 J
b100 G
b0 F
1E
1&
#420
0&
#430
b1 F
1&
#440
0&
#450
b10 F
1&
#460
0&
#470
b0 F
0E
1&
#480
0&
#490
b1 F
1&
#500
0&
#510
b10 F
1&
#520
0&
#530
b101 J
b101 G
b0 F
1E
1&
#540
0&
#550
b1 F
1&
#560
0&
#570
b10 F
1&
#580
0&
#590
b0 F
0E
1&
#600
0&
#610
b1 F
1&
#620
0&
#630
b10 F
1&
#640
0&
#650
b110 J
b110 G
b0 F
1E
1&
#660
0&
#670
b1 F
1&
#680
0&
#690
b10 F
1&
#700
0&
#710
b0 F
0E
1&
#720
0&
#730
b1 F
1&
#740
0&
#750
b10 F
1&
#760
0&
#770
b111 J
b111 G
b0 F
1E
1&
#780
0&
#790
b1 F
1&
#800
0&
#810
b10 F
1&
#820
0&
#830
b0 F
0E
1&
#840
0&
#850
b1 F
1&
#860
0&
#870
b10 F
1&
#880
0&
#890
b1000 J
b1000 G
b0 F
1E
1&
#900
0&
#910
b1 F
1&
#920
0&
#930
b10 F
1&
#940
0&
#950
b0 F
0E
1&
#960
0&
#970
b1 F
1&
#980
0&
#990
b10 F
1&
#1000
0&
#1010
b1001 J
b1001 G
b0 F
1E
1&
#1020
0&
#1030
b1 F
1&
#1040
0&
#1050
b10 F
1&
#1060
0&
#1070
b0 F
0E
1&
#1080
0&
#1090
b1 F
1&
#1100
0&
#1110
b10 F
1&
#1120
0&
#1130
b1010 J
b1010 G
b0 F
1E
1&
#1140
0&
#1150
b1 F
1&
#1160
0&
#1170
b10 F
1&
#1180
0&
#1190
b0 F
0E
1&
#1200
0&
#1210
b1 F
1&
#1220
0&
#1230
b10 F
1&
#1240
0&
#1250
1K
0I
b1011 G
b0 F
1E
1&
#1260
0&
#1270
b1 F
1&
#1280
0&
#1290
b10 F
1&
#1300
0&
#1310
b0 F
0E
1&
#1320
0&
#1330
b1 F
1&
#1340
0&
#1350
b10 F
1&
#1360
0&
#1370
04
1/
b11110 2
b100000000000000000000000111101000111100000100 @
b100000000000000000000000111101000111100000100 W
b1 %
b1 (
b1 P
b1 V
b1011 J
0K
b1100 G
b0 F
1E
1&
#1380
0&
#1390
b1 F
1&
#1400
0&
#1410
b10 F
1&
#1420
0&
#1430
b0 F
0E
1&
#1440
0&
#1450
b1 F
1&
#1460
0&
#1470
b10 F
1&
#1480
0&
#1490
0q
0+
1!"
b10001111 C
b10001111 b
b10001111 ~
b1100 J
1I
1U
0N
b1101 G
b0 F
1E
1&
#1500
0&
#1510
b1 F
1&
#1520
0&
#1530
b10 F
1&
#1540
0&
#1550
b0 F
0E
1&
#1560
0&
#1570
b1 F
1&
#1580
0&
#1590
b10 F
1&
#1600
0&
#1610
1q
0,
1+
0"
0u
1}
b10001111 |
09
1""
b10 ;
b10 #"
b1101 J
b1110 G
b0 F
1E
1&
#1620
0&
#1630
b1 F
1&
#1640
0&
#1650
b10 F
1&
#1660
0&
#1670
b0 F
0E
1&
#1680
0&
#1690
b1 F
1&
#1700
0&
#1710
b10 F
1&
#1720
0&
#1730
b1 v
1B
b1110 J
b1111 G
b0 F
1E
1&
#1740
0&
#1750
b1 F
1&
#1760
0&
#1770
b10 F
1&
#1780
0&
#1790
b0 F
0E
1&
#1800
0&
#1810
b1 F
1&
#1820
0&
#1830
b10 F
1&
#1840
0&
#1850
0-
0#
z,
1o
1"
1u
b1 z
b0 v
b1000 ;
b1000 #"
0B
b1111 J
b10000 G
b0 F
1E
1&
#1860
0&
#1870
b1 F
1&
#1880
0&
#1890
b10 F
1&
#1900
0&
#1910
b0 F
0E
1&
#1920
0&
#1930
b1 F
1&
#1940
0&
#1950
b10 F
1&
#1960
0&
#1970
b1 v
1B
b10000 J
b10001 G
b0 F
1E
1&
#1980
0&
#1990
b1 F
1&
#2000
0&
#2010
b10 F
1&
#2020
0&
#2030
b0 F
0E
1&
#2040
0&
#2050
b1 F
1&
#2060
0&
#2070
b10 F
1&
#2080
0&
#2090
z-
1#
b1 p
0o
b1000111 |
b1 {
b10 z
b0 v
b100 ;
b100 #"
0B
b10001 J
b10010 G
b0 F
1E
1&
#2100
0&
#2110
b1 F
1&
#2120
0&
#2130
b10 F
1&
#2140
0&
#2150
b0 F
0E
1&
#2160
0&
#2170
b1 F
1&
#2180
0&
#2190
b10 F
1&
#2200
0&
#2210
b1 v
1B
b10010 J
b10011 G
b0 F
1E
1&
#2220
0&
#2230
b1 F
1&
#2240
0&
#2250
b10 F
1&
#2260
0&
#2270
b0 F
0E
1&
#2280
0&
#2290
b1 F
1&
#2300
0&
#2310
b10 F
1&
#2320
0&
#2330
0-
0#
1o
b1 :
b1 $"
b11 z
b0 v
b1000 ;
b1000 #"
0B
b10011 J
b10100 G
b0 F
1E
1&
#2340
0&
#2350
b1 F
1&
#2360
0&
#2370
b10 F
1&
#2380
0&
#2390
b0 F
0E
1&
#2400
0&
#2410
b1 F
1&
#2420
0&
#2430
b10 F
1&
#2440
0&
#2450
b1 v
1B
b10100 J
b10101 G
b0 F
1E
1&
#2460
0&
#2470
b1 F
1&
#2480
0&
#2490
b10 F
1&
#2500
0&
#2510
b0 F
0E
1&
#2520
0&
#2530
b1 F
1&
#2540
0&
#2550
b10 F
1&
#2560
0&
#2570
z-
1#
b10 p
0o
b100011 |
b11 {
b100 z
b0 v
b100 ;
b100 #"
0B
b10101 J
b10110 G
b0 F
1E
1&
#2580
0&
#2590
b1 F
1&
#2600
0&
#2610
b10 F
1&
#2620
0&
#2630
b0 F
0E
1&
#2640
0&
#2650
b1 F
1&
#2660
0&
#2670
b10 F
1&
#2680
0&
#2690
b1 v
1B
b10110 J
b10111 G
b0 F
1E
1&
#2700
0&
#2710
b1 F
1&
#2720
0&
#2730
b10 F
1&
#2740
0&
#2750
b0 F
0E
1&
#2760
0&
#2770
b1 F
1&
#2780
0&
#2790
b10 F
1&
#2800
0&
#2810
0-
0#
1o
b10 :
b10 $"
b101 z
b0 v
b1000 ;
b1000 #"
0B
b10111 J
b11000 G
b0 F
1E
1&
#2820
0&
#2830
b1 F
1&
#2840
0&
#2850
b10 F
1&
#2860
0&
#2870
b0 F
0E
1&
#2880
0&
#2890
b1 F
1&
#2900
0&
#2910
b10 F
1&
#2920
0&
#2930
b1 v
1B
b11000 J
b11001 G
b0 F
1E
1&
#2940
0&
#2950
b1 F
1&
#2960
0&
#2970
b10 F
1&
#2980
0&
#2990
b0 F
0E
1&
#3000
0&
#3010
b1 F
1&
#3020
0&
#3030
b10 F
1&
#3040
0&
#3050
z-
1#
b11 p
0o
b10001 |
b111 {
b110 z
b0 v
b100 ;
b100 #"
0B
b11001 J
b11010 G
b0 F
1E
1&
#3060
0&
#3070
b1 F
1&
#3080
0&
#3090
b10 F
1&
#3100
0&
#3110
b0 F
0E
1&
#3120
0&
#3130
b1 F
1&
#3140
0&
#3150
b10 F
1&
#3160
0&
#3170
b1 v
1B
b11010 J
b11011 G
b0 F
1E
1&
#3180
0&
#3190
b1 F
1&
#3200
0&
#3210
b10 F
1&
#3220
0&
#3230
b0 F
0E
1&
#3240
0&
#3250
b1 F
1&
#3260
0&
#3270
b10 F
1&
#3280
0&
#3290
0-
0#
1o
b11 :
b11 $"
b111 z
b0 v
b1000 ;
b1000 #"
0B
b11011 J
b11100 G
b0 F
1E
1&
#3300
0&
#3310
b1 F
1&
#3320
0&
#3330
b10 F
1&
#3340
0&
#3350
b0 F
0E
1&
#3360
0&
#3370
b1 F
1&
#3380
0&
#3390
b10 F
1&
#3400
0&
#3410
b1 v
1B
b11100 J
b11101 G
b0 F
1E
1&
#3420
0&
#3430
b1 F
1&
#3440
0&
#3450
b10 F
1&
#3460
0&
#3470
b0 F
0E
1&
#3480
0&
#3490
b1 F
1&
#3500
0&
#3510
b10 F
1&
#3520
0&
#3530
z-
1#
b100 p
0o
b1000 |
b1111 {
b1000 z
b0 v
b100 ;
b100 #"
0B
b11101 J
b11110 G
b0 F
1E
1&
#3540
0&
#3550
b1 F
1&
#3560
0&
#3570
b10 F
1&
#3580
0&
#3590
b0 F
0E
1&
#3600
0&
#3610
b1 F
1&
#3620
0&
#3630
b10 F
1&
#3640
0&
#3650
b1 v
1B
b11110 J
b11111 G
b0 F
1E
1&
#3660
0&
#3670
b1 F
1&
#3680
0&
#3690
b10 F
1&
#3700
0&
#3710
b0 F
0E
1&
#3720
0&
#3730
b1 F
1&
#3740
0&
#3750
b10 F
1&
#3760
0&
#3770
0-
0#
0,
1o
0"
0u
b100 :
b100 $"
b1001 z
b0 v
b1000 ;
b1000 #"
0B
1K
0I
b100000 G
b0 F
1E
1&
#3780
0&
#3790
b1 F
1&
#3800
0&
#3810
b10 F
1&
#3820
0&
#3830
b0 F
0E
1&
#3840
0&
#3850
b1 F
1&
#3860
0&
#3870
b10 F
1&
#3880
0&
#3890
10
0/
b0 1
b101000 2
b1 v
1B
b100000000000000000000001010000000000000000001 @
b100000000000000000000001010000000000000000001 W
b10 %
b10 (
b10 P
b10 V
b11111 J
0K
b100001 G
b0 F
1E
1&
#3900
0&
#3910
b1 F
1&
#3920
0&
#3930
b10 F
1&
#3940
0&
#3950
b0 F
0E
1&
#3960
0&
#3970
b1 F
1&
#3980
0&
#3990
b10 F
1&
#4000
0&
#4010
z-
1#
b101 p
0o
b100 |
b11111 {
b1010 z
b0 v
b100 ;
b100 #"
0B
b100000 J
1I
b0 S
b0 l
1T
0U
b100010 G
b0 F
1E
1&
#4020
0&
#4030
b1 F
1&
#4040
0&
#4050
b10 F
1&
#4060
0&
#4070
b0 F
0E
1&
#4080
0&
#4090
b1 F
1&
#4100
0&
#4110
b10 F
1&
#4120
0&
#4130
b1 v
1B
b100001 J
b100011 G
b0 F
1E
1&
#4140
0&
#4150
b1 F
1&
#4160
0&
#4170
b10 F
1&
#4180
0&
#4190
b0 F
0E
1&
#4200
0&
#4210
b1 F
1&
#4220
0&
#4230
b10 F
1&
#4240
0&
#4250
0-
0#
1o
b101 :
b101 $"
b1011 z
b0 v
b1000 ;
b1000 #"
0B
b100010 J
b100100 G
b0 F
1E
1&
#4260
0&
#4270
b1 F
1&
#4280
0&
#4290
b10 F
1&
#4300
0&
#4310
b0 F
0E
1&
#4320
0&
#4330
b1 F
1&
#4340
0&
#4350
b10 F
1&
#4360
0&
#4370
b1 v
1B
b100011 J
b100101 G
b0 F
1E
1&
#4380
0&
#4390
b1 F
1&
#4400
0&
#4410
b10 F
1&
#4420
0&
#4430
b0 F
0E
1&
#4440
0&
#4450
b1 F
1&
#4460
0&
#4470
b10 F
1&
#4480
0&
#4490
z-
1#
b110 p
0o
b10 |
b111111 {
b1100 z
b0 v
b100 ;
b100 #"
0B
b100100 J
b100110 G
b0 F
1E
1&
#4500
0&
#4510
b1 F
1&
#4520
0&
#4530
b10 F
1&
#4540
0&
#4550
b0 F
0E
1&
#4560
0&
#4570
b1 F
1&
#4580
0&
#4590
b10 F
1&
#4600
0&
#4610
b1 v
1B
b100101 J
b100111 G
b0 F
1E
1&
#4620
0&
#4630
b1 F
1&
#4640
0&
#4650
b10 F
1&
#4660
0&
#4670
b0 F
0E
1&
#4680
0&
#4690
b1 F
1&
#4700
0&
#4710
b10 F
1&
#4720
0&
#4730
0-
0#
1o
b110 :
b110 $"
b1101 z
b0 v
b1000 ;
b1000 #"
0B
b100110 J
b101000 G
b0 F
1E
1&
#4740
0&
#4750
b1 F
1&
#4760
0&
#4770
b10 F
1&
#4780
0&
#4790
b0 F
0E
1&
#4800
0&
#4810
b1 F
1&
#4820
0&
#4830
b10 F
1&
#4840
0&
#4850
b1 v
1B
b100111 J
b101001 G
b0 F
1E
1&
#4860
0&
#4870
b1 F
1&
#4880
0&
#4890
b10 F
1&
#4900
0&
#4910
b0 F
0E
1&
#4920
0&
#4930
b1 F
1&
#4940
0&
#4950
b10 F
1&
#4960
0&
#4970
z-
1#
b111 p
0o
b1 |
b1111111 {
b1110 z
b0 v
b100 ;
b100 #"
0B
b101000 J
b101010 G
b0 F
1E
1&
#4980
0&
#4990
b1 F
1&
#5000
0&
#5010
b10 F
1&
#5020
0&
#5030
b0 F
0E
1&
#5040
0&
#5050
b1 F
1&
#5060
0&
#5070
b10 F
1&
#5080
0&
#5090
b1 v
1B
1K
0I
b101011 G
b0 F
1E
1&
#5100
0&
#5110
b1 F
1&
#5120
0&
#5130
b10 F
1&
#5140
0&
#5150
b0 F
0E
1&
#5160
0&
#5170
b1 F
1&
#5180
0&
#5190
b10 F
1&
#5200
0&
#5210
0-
0#
z,
1o
1"
1u
b111 :
b111 $"
b1111 z
b0 v
b1000 ;
b1000 #"
0B
1H
b101100 G
b0 F
1E
1&
#5220
0&
#5230
b1 F
1&
#5240
0&
#5250
b10 F
1&
#5260
0&
#5270
b0 F
0E
1&
#5280
0&
#5290
b1 F
1&
#5300
0&
#5310
b10 F
1&
#5320
0&
#5330
b1 v
1B
b101101 G
b0 F
1E
1&
#5340
0&
#5350
b1 F
1&
#5360
0&
#5370
b10 F
1&
#5380
0&
#5390
b0 F
0E
1&
#5400
0&
#5410
b1 F
1&
#5420
0&
#5430
b10 F
1&
#5440
0&
#5450
z-
1#
b1000 p
0o
b0 |
b11111111 {
b10000 z
b0 v
b100 ;
b100 #"
0B
b101110 G
b0 F
1E
1&
#5460
0&
#5470
b1 F
1&
#5480
0&
#5490
b10 F
1&
#5500
0&
#5510
b0 F
0E
1&
#5520
0&
#5530
b1 F
1&
#5540
0&
#5550
b10 F
1&
#5560
0&
#5570
b1 v
1B
b101111 G
b0 F
1E
1&
#5580
0&
#5590
b1 F
1&
#5600
0&
#5610
b10 F
1&
#5620
0&
#5630
b0 F
0E
1&
#5640
0&
#5650
b1 F
1&
#5660
0&
#5670
b10 F
1&
#5680
0&
#5690
0-
0#
0,
1o
0"
0u
b1000 :
b1000 $"
b10001 z
b0 v
b1000 ;
b1000 #"
0B
b110000 G
b0 F
1E
1&
#5700
0&
#5710
b1 F
1&
#5720
0&
#5730
b10 F
1&
#5740
0&
#5750
b0 F
0E
1&
#5760
0&
#5770
b1 F
1&
#5780
0&
#5790
b10 F
1&
#5800
0&
#5810
b1 v
1B
b110001 G
b0 F
1E
1&
#5820
0&
#5830
b1 F
1&
#5840
0&
#5850
b10 F
1&
#5860
0&
#5870
b0 F
0E
1&
#5880
0&
#5890
b1 F
1&
#5900
0&
#5910
b10 F
1&
#5920
0&
#5930
z-
1#
b1001 p
0o
b10010 z
b0 v
b100 ;
b100 #"
0B
b110010 G
b0 F
1E
1&
#5940
0&
#5950
b1 F
1&
#5960
0&
#5970
b10 F
1&
#5980
0&
#5990
b0 F
0E
1&
#6000
0&
#6010
b1 F
1&
#6020
0&
#6030
b10 F
1&
#6040
0&
#6050
b1 v
1B
b110011 G
b0 F
1E
1&
#6060
0&
#6070
b1 F
1&
#6080
0&
#6090
b10 F
1&
#6100
0&
#6110
b0 F
0E
1&
#6120
0&
#6130
b1 F
1&
#6140
0&
#6150
b10 F
1&
#6160
0&
#6170
0-
0#
1o
b1001 :
b1001 $"
b10011 z
b0 v
b1000 ;
b1000 #"
0B
b110100 G
b0 F
1E
1&
#6180
0&
#6190
b1 F
1&
#6200
0&
#6210
b10 F
1&
#6220
0&
#6230
b0 F
0E
1&
#6240
0&
#6250
b1 F
1&
#6260
0&
#6270
b10 F
1&
#6280
0&
#6290
b1 v
1B
b110101 G
b0 F
1E
1&
#6300
0&
#6310
b1 F
1&
#6320
0&
#6330
b10 F
1&
#6340
0&
#6350
b0 F
0E
1&
#6360
0&
#6370
b1 F
1&
#6380
0&
#6390
b10 F
1&
#6400
0&
#6410
z-
1#
b1010 p
0o
b10100 z
b0 v
b100 ;
b100 #"
0B
b110110 G
b0 F
1E
1&
#6420
0&
#6430
b1 F
1&
#6440
0&
#6450
b10 F
1&
#6460
0&
#6470
b0 F
0E
1&
#6480
0&
#6490
b1 F
1&
#6500
0&
#6510
b10 F
1&
#6520
0&
#6530
b1 v
1B
b110111 G
b0 F
1E
1&
#6540
0&
#6550
b1 F
1&
#6560
0&
#6570
b10 F
1&
#6580
0&
#6590
b0 F
0E
1&
#6600
0&
#6610
b1 F
1&
#6620
0&
#6630
b10 F
1&
#6640
0&
#6650
1=
z,
b0 p
0}
1x
b11111111 D
b11111111 a
b11111111 w
1"
1u
19
b1010 :
b1010 $"
b0 z
b0 v
b111 ;
b111 #"
0B
b111000 G
b0 F
1E
1&
#6660
0&
#6670
b1 F
1&
#6680
0&
#6690
b10 F
1&
#6700
0&
#6710
b0 F
0E
1&
#6720
0&
#6730
b1 F
1&
#6740
0&
#6750
b10 F
1&
#6760
0&
#6770
00
1/
b1000000 1
b1000110 2
1A
b100000000000000000000010001100100000000000100 @
b100000000000000000000010001100100000000000100 W
b11 %
b11 (
b11 P
b11 V
b101001 J
0K
0H
b111001 G
b0 F
1E
1&
#6780
0&
#6790
b1 F
1&
#6800
0&
#6810
b10 F
1&
#6820
0&
#6830
b0 F
0E
1&
#6840
0&
#6850
b1 F
1&
#6860
0&
#6870
b10 F
1&
#6880
0&
#6890
b1000000 C
b1000000 b
b1000000 ~
b101010 J
1I
b1000000 S
b1000000 l
0T
1U
b111010 G
b0 F
1E
1&
#6900
0&
#6910
b1 F
1&
#6920
0&
#6930
b10 F
1&
#6940
0&
#6950
b0 F
0E
1&
#6960
0&
#6970
b1 F
1&
#6980
0&
#6990
b10 F
1&
#7000
0&
#7010
b101011 J
b111011 G
b0 F
1E
1&
#7020
0&
#7030
b1 F
1&
#7040
0&
#7050
b10 F
1&
#7060
0&
#7070
b0 F
0E
1&
#7080
0&
#7090
b1 F
1&
#7100
0&
#7110
b10 F
1&
#7120
0&
#7130
b101100 J
b111100 G
b0 F
1E
1&
#7140
0&
#7150
b1 F
1&
#7160
0&
#7170
b10 F
1&
#7180
0&
#7190
b0 F
0E
1&
#7200
0&
#7210
b1 F
1&
#7220
0&
#7230
b10 F
1&
#7240
0&
#7250
b101101 J
b111101 G
b0 F
1E
1&
#7260
0&
#7270
b1 F
1&
#7280
0&
#7290
b10 F
1&
#7300
0&
#7310
b0 F
0E
1&
#7320
0&
#7330
b1 F
1&
#7340
0&
#7350
b10 F
1&
#7360
0&
#7370
b101110 J
b111110 G
b0 F
1E
1&
#7380
0&
#7390
b1 F
1&
#7400
0&
#7410
b10 F
1&
#7420
0&
#7430
b0 F
0E
1&
#7440
0&
#7450
b1 F
1&
#7460
0&
#7470
b10 F
1&
#7480
0&
#7490
b101111 J
b111111 G
b0 F
1E
1&
#7500
0&
#7510
b1 F
1&
#7520
0&
#7530
b10 F
1&
#7540
0&
#7550
b0 F
0E
1&
#7560
0&
#7570
b1 F
1&
#7580
0&
#7590
b10 F
1&
#7600
0&
#7610
b110000 J
b1000000 G
b0 F
1E
1&
#7620
0&
#7630
b1 F
1&
#7640
0&
#7650
b10 F
1&
#7660
0&
#7670
b0 F
0E
1&
#7680
0&
#7690
b1 F
1&
#7700
0&
#7710
b10 F
1&
#7720
0&
#7730
b110001 J
b1000001 G
b0 F
1E
1&
#7740
0&
#7750
b1 F
1&
#7760
0&
#7770
b10 F
1&
#7780
0&
#7790
b0 F
0E
1&
#7800
0&
#7810
b1 F
1&
#7820
0&
#7830
b10 F
1&
#7840
0&
#7850
b110010 J
b1000010 G
b0 F
1E
1&
#7860
0&
#7870
b1 F
1&
#7880
0&
#7890
b10 F
1&
#7900
0&
#7910
b0 F
0E
1&
#7920
0&
#7930
b1 F
1&
#7940
0&
#7950
b10 F
1&
#7960
0&
#7970
b110011 J
b1000011 G
b0 F
1E
1&
#7980
0&
#7990
b1 F
1&
#8000
0&
#8010
b10 F
1&
#8020
0&
#8030
b0 F
0E
1&
#8040
0&
#8050
b1 F
1&
#8060
0&
#8070
b10 F
1&
#8080
0&
#8090
b110100 J
b1000100 G
b0 F
1E
1&
#8100
0&
#8110
b1 F
1&
#8120
0&
#8130
b10 F
1&
#8140
0&
#8150
b0 F
0E
1&
#8160
0&
#8170
b1 F
1&
#8180
0&
#8190
b10 F
1&
#8200
0&
#8210
b110101 J
b1000101 G
b0 F
1E
1&
#8220
0&
#8230
b1 F
1&
#8240
0&
#8250
b10 F
1&
#8260
0&
#8270
b0 F
0E
1&
#8280
0&
#8290
b1 F
1&
#8300
0&
#8310
b10 F
1&
#8320
0&
#8330
b110110 J
b1000110 G
b0 F
1E
1&
#8340
0&
#8350
b1 F
1&
#8360
0&
#8370
b10 F
1&
#8380
0&
#8390
b0 F
0E
1&
#8400
0&
#8410
b1 F
1&
#8420
0&
#8430
b10 F
1&
#8440
0&
#8450
b110111 J
b1000111 G
b0 F
1E
1&
#8460
0&
#8470
b1 F
1&
#8480
0&
#8490
b10 F
1&
#8500
0&
#8510
b0 F
0E
1&
#8520
0&
#8530
b1 F
1&
#8540
0&
#8550
b10 F
1&
#8560
0&
#8570
b111000 J
b1001000 G
b0 F
1E
1&
#8580
0&
#8590
b1 F
1&
#8600
0&
#8610
b10 F
1&
#8620
0&
#8630
b0 F
0E
1&
#8640
0&
#8650
b1 F
1&
#8660
0&
#8670
b10 F
1&
#8680
0&
#8690
b111001 J
b1001001 G
b0 F
1E
1&
#8700
0&
#8710
b1 F
1&
#8720
0&
#8730
b10 F
1&
#8740
0&
#8750
b0 F
0E
1&
#8760
0&
#8770
b1 F
1&
#8780
0&
#8790
b10 F
1&
#8800
0&
#8810
b111010 J
b1001010 G
b0 F
1E
1&
#8820
0&
#8830
b1 F
1&
#8840
0&
#8850
b10 F
1&
#8860
0&
#8870
b0 F
0E
1&
#8880
0&
#8890
b1 F
1&
#8900
0&
#8910
b10 F
1&
#8920
0&
#8930
b111011 J
b1001011 G
b0 F
1E
1&
#8940
0&
#8950
b1 F
1&
#8960
0&
#8970
b10 F
1&
#8980
0&
#8990
b0 F
0E
1&
#9000
0&
#9010
b1 F
1&
#9020
0&
#9030
b10 F
1&
#9040
0&
#9050
b111100 J
b1001100 G
b0 F
1E
1&
#9060
0&
#9070
b1 F
1&
#9080
0&
#9090
b10 F
1&
#9100
0&
#9110
b0 F
0E
1&
#9120
0&
#9130
b1 F
1&
#9140
0&
#9150
b10 F
1&
#9160
0&
#9170
b111101 J
b1001101 G
b0 F
1E
1&
#9180
0&
#9190
b1 F
1&
#9200
0&
#9210
b10 F
1&
#9220
0&
#9230
b0 F
0E
1&
#9240
0&
#9250
b1 F
1&
#9260
0&
#9270
b10 F
1&
#9280
0&
#9290
b111110 J
b1001110 G
b0 F
1E
1&
#9300
0&
#9310
b1 F
1&
#9320
0&
#9330
b10 F
1&
#9340
0&
#9350
b0 F
0E
1&
#9360
0&
#9370
b1 F
1&
#9380
0&
#9390
b10 F
1&
#9400
0&
#9410
b111111 J
b1001111 G
b0 F
1E
1&
#9420
0&
#9430
b1 F
1&
#9440
0&
#9450
b10 F
1&
#9460
0&
#9470
b0 F
0E
1&
